<svg id="ape" xmlns="http://www.w3.org/2000/svg" xmlns:xlink="http://www.w3.org/1999/xlink" width="105.53" height="172.01" viewBox="0 0 105.53 172.01">
  <defs>
    <style>
      .cls-1 {
        fill: url(#linear-gradient);
      }

      .cls-2 {
        fill: #fff;
      }
    </style>
    <linearGradient id="linear-gradient" x1="60.59" y1="13.23" x2="60.59" y2="180.54" gradientUnits="userSpaceOnUse">
      <stop offset="0" stop-color="#ebb900"/>
      <stop offset="1" stop-color="#d7000f"/>
    </linearGradient>
  </defs>
  <title>apefire</title>
  <g>
    <path class="cls-1" d="M89.91,164.39c-24,16.39-56.21,11-72-12.13a49.25,49.25,0,0,1-8.27-33.17s4,7.17,7.22,5.63S4.95,108.24,8.31,92.49A50.92,50.92,0,0,1,22.13,67.34s-2,21.84,7.24,21.95S39,77.69,36.65,68.58,31.76,46.4,43.43,36.14,71.71,12.49,70.6,1.85c0,0,6,22.11-7.61,41.9s17.12,32.47,21.28,8.47c1.63-9.31,5.85-13.8,5.85-13.8S89.58,50,94,56.76s4.53,17,.76,21.13,2.35,10.21,7.74,4.82c3.29-3.31,4.16-9.76,4.16-9.76s7.62,11.13,6.62,35C112.39,128.64,107.67,152.23,89.91,164.39Z" transform="translate(-7.82 -1.85)"/>
    <g>
      <path class="cls-2" d="M79.42,104.56H41.76a14.65,14.65,0,0,0-7.14,27.55l2.94-5.42a8.44,8.44,0,0,1,3.53-15.88,3.41,3.41,0,0,0-.1.48,4.15,4.15,0,1,0,8.3,0,3.7,3.7,0,0,0-.11-.55H72a4.44,4.44,0,0,0-.12.55,4.15,4.15,0,0,0,8.31,0,4.84,4.84,0,0,0-.1-.48,8.43,8.43,0,0,1,3.06,16.1l2.62,5.59a14.65,14.65,0,0,0-6.35-27.94Z" transform="translate(-7.82 -1.85)"/>
      <g>
        <path class="cls-2" d="M38.26,143.6a120.32,120.32,0,0,1,44.76.59c-1-5.73-5.87-10.54-12.62-13,2.16-1.46,3.51-3.38,3.51-5.51,0-4.53-6-8.21-13.32-8.21s-13.33,3.68-13.33,8.21c0,2.12,1.34,4,3.48,5.5C44.22,133.54,39.45,138.12,38.26,143.6Zm14.88-19.84a2.34,2.34,0,0,1,3.26-.39l4.25,6.4,4-6.61a2.31,2.31,0,1,1,3.06,3.47l-5.46,4.81a2.29,2.29,0,0,1-1.53.58,2.34,2.34,0,0,1-1.43-.49L53.54,127A2.31,2.31,0,0,1,53.14,123.76Z" transform="translate(-7.82 -1.85)"/>
        <path class="cls-2" d="M38,146.81c.4,9,10.32,16.24,22.57,16.24,12,0,21.72-6.93,22.48-15.69C64.18,143.25,46.7,145.25,38,146.81Z" transform="translate(-7.82 -1.85)"/>
      </g>
    </g>
  </g>
</svg>
